2019/02/01-06:03 red (ff0000)
2019/02/01-08:03 red (ff0000)
2019/02/01-10:03 red (ff0000)
2019/02/01-14:03 red (ff0000)
2019/02/01-16:03 red (ff0000)
2019/02/02-06:03 red (ff0000)
2019/02/02-08:03 red (ff0000)
2019/02/02-10:03 red (ff0000)
2019/02/02-14:03 red (ff0000)
2019/02/02-16:03 red (ff0000)
2019/02/03-06:03 red (ff0000)
2019/02/03-08:03 red (ff0000)
2019/02/03-10:03 yellow (ffff00)
2019/02/03-14:03 yellow (ffff00)
2019/02/03-16:03 yellow (ffff00)
2019/02/04-06:03 yellow (ffff00)
2019/02/04-08:03 yellow (ffff00)
2019/02/04-10:03 red (ff0000)
2019/02/04-14:03 red (ff0000)
2019/02/04-16:03 red (ff0000)
2019/02/05-06:03 red (ff0000)
2019/02/05-08:03 red (ff0000)
2019/02/05-10:03 red (ff0000)
2019/02/05-14:03 red (ff0000)
2019/02/05-16:03 red (ff0000)
2019/02/06-06:03 red (ff0000)
2019/02/06-08:03 red (ff0000)
2019/02/06-10:03 red (ff0000)
2019/02/06-14:03 red (ff0000)
2019/02/06-16:03 red (ff0000)
2019/02/07-06:03 red (ff0000)
2019/02/07-08:03 red (ff0000)
2019/02/07-10:03 yellow (ffff00)
2019/02/07-14:03 yellow (ffff00)
2019/02/07-16:03 yellow (ffff00)
2019/02/08-06:03 yellow (ffff00)
2019/02/08-08:03 yellow (ffff00)
2019/02/08-10:03 red (ff0000)
2019/02/08-14:03 red (ff0000)
2019/02/08-16:03 red (ff0000)
2019/02/09-06:03 red (ff0000)
2019/02/09-08:03 red (ff0000)
2019/02/09-10:03 red (ff0000)
2019/02/09-14:03 red (ff0000)
2019/02/09-16:03 red (ff0000)
2019/02/10-06:03 red (ff0000)
2019/02/10-08:03 red (ff0000)
2019/02/10-10:03 red (ff0000)
2019/02/10-14:03 red (ff0000)
2019/02/10-16:03 red (ff0000)
2019/02/11-06:03 red (ff0000)
2019/02/11-08:03 red (ff0000)
2019/02/11-10:03 red (ff0000)
2019/02/11-14:03 red (ff0000)
2019/02/11-16:03 red (ff0000)
2019/02/12-06:03 red (ff0000)
2019/02/12-08:03 red (ff0000)
2019/02/12-10:03 red (ff0000)
2019/02/12-14:03 red (ff0000)
2019/02/12-16:03 red (ff0000)
2019/02/13-06:03 red (ff0000)
2019/02/13-08:03 red (ff0000)
2019/02/13-10:03 yellow (ffff00)
2019/02/13-14:03 red (ff0000)
2019/02/13-16:03 red (ff0000)
2019/02/14-06:03 red (ff0000)
2019/02/14-08:03 red (ff0000)
2019/02/14-10:03 red (ff0000)
2019/02/14-14:03 red (ff0000)
2019/02/14-16:03 red (ff0000)
2019/02/15-06:03 red (ff0000)
2019/02/15-08:03 red (ff0000)
2019/02/15-10:03 red (ff0000)
2019/02/15-14:03 red (ff0000)
2019/02/15-16:03 red (ff0000)
2019/02/16-06:03 red (ff0000)
2019/02/16-08:03 red (ff0000)
2019/02/16-10:03 red (ff0000)
2019/02/16-14:03 red (ff0000)
2019/02/16-16:03 red (ff0000)
2019/02/17-06:03 red (ff0000)
2019/02/17-08:03 red (ff0000)
2019/02/17-10:03 red (ff0000)
2019/02/17-14:03 red (ff0000)
2019/02/17-16:03 red (ff0000)
2019/02/18-06:03 red (ff0000)
2019/02/18-08:03 red (ff0000)
2019/02/18-10:03 red (ff0000)
2019/02/18-14:03 red (ff0000)
2019/02/18-16:03 red (ff0000)
2019/02/19-06:03 red (ff0000)
2019/02/19-08:03 red (ff0000)
2019/02/19-10:03 yellow (ffff00)
2019/02/19-14:03 red (ff0000)
2019/02/19-16:03 red (ff0000)
2019/02/20-06:03 red (ff0000)
2019/02/20-08:03 red (ff0000)
2019/02/20-10:03 red (ff0000)
2019/02/20-14:03 yellow (ffff00)
2019/02/20-16:03 yellow (ffff00)
2019/02/21-06:03 yellow (ffff00)
2019/02/21-08:03 yellow (ffff00)
2019/02/21-10:03 red (ff0000)
2019/02/21-14:03 red (ff0000)
2019/02/21-16:03 red (ff0000)
2019/02/22-06:03 red (ff0000)
2019/02/22-08:03 red (ff0000)
2019/02/22-10:03 yellow (ffff00)
2019/02/22-14:03 red (ff0000)
2019/02/22-16:03 red (ff0000)
2019/02/23-06:03 red (ff0000)
2019/02/23-08:03 red (ff0000)
2019/02/23-10:03 red (ff0000)
2019/02/23-14:03 red (ff0000)
2019/02/23-16:03 red (ff0000)
2019/02/24-06:03 red (ff0000)
2019/02/24-08:03 red (ff0000)
2019/02/24-10:03 red (ff0000)
2019/02/24-14:03 red (ff0000)
2019/02/24-16:03 red (ff0000)
2019/02/25-06:03 red (ff0000)
2019/02/25-08:03 red (ff0000)
2019/02/25-10:03 red (ff0000)
2019/02/25-14:03 red (ff0000)
2019/02/25-16:03 red (ff0000)
2019/02/26-06:03 red (ff0000)
2019/02/26-08:03 red (ff0000)
2019/02/26-10:03 red (ff0000)
2019/02/26-14:03 red (ff0000)
2019/02/26-16:03 red (ff0000)
2019/02/27-06:03 red (ff0000)
2019/02/27-08:03 red (ff0000)
2019/02/27-10:03 red (ff0000)
2019/02/27-14:03 red (ff0000)
2019/02/27-16:03 red (ff0000)
2019/02/28-06:03 red (ff0000)
2019/02/28-08:03 red (ff0000)
2019/02/28-10:03 red (ff0000)
2019/02/28-14:03 red (ff0000)
2019/02/28-16:03 red (ff0000)
