2018/09/01-06:03 blue (0000ff)
2018/09/01-08:03 blue (0000ff)
2018/09/01-10:03 blue (0000ff)
2018/09/01-14:03 blue (0000ff)
2018/09/01-16:03 blue (0000ff)
2018/09/02-06:03 blue (0000ff)
2018/09/02-08:03 blue (0000ff)
2018/09/02-10:03 blue (0000ff)
2018/09/02-14:03 red (ff0000)
2018/09/02-16:03 red (ff0000)
2018/09/03-06:03 red (ff0000)
2018/09/03-08:03 red (ff0000)
2018/09/03-10:03 red (ff0000)
2018/09/03-14:03 red (ff0000)
2018/09/03-16:03 red (ff0000)
2018/09/04-06:03 red (ff0000)
2018/09/04-08:03 red (ff0000)
2018/09/04-10:03 red (ff0000)
2018/09/04-14:03 red (ff0000)
2018/09/04-16:03 red (ff0000)
2018/09/05-06:03 red (ff0000)
2018/09/05-08:03 red (ff0000)
2018/09/05-10:03 yellow (ffff00)
2018/09/05-14:03 yellow (ffff00)
2018/09/05-16:03 yellow (ffff00)
2018/09/06-06:03 yellow (ffff00)
2018/09/06-08:03 yellow (ffff00)
2018/09/06-10:03 yellow (ffff00)
2018/09/06-14:03 yellow (ffff00)
2018/09/06-16:03 yellow (ffff00)
2018/09/07-06:03 yellow (ffff00)
2018/09/07-08:03 yellow (ffff00)
2018/09/07-10:03 yellow (ffff00)
2018/09/07-14:03 yellow (ffff00)
2018/09/07-16:03 yellow (ffff00)
2018/09/08-06:03 yellow (ffff00)
2018/09/08-08:03 yellow (ffff00)
2018/09/08-10:03 blue (0000ff)
2018/09/08-14:03 blue (0000ff)
2018/09/08-16:03 blue (0000ff)
2018/09/09-06:03 red (ff0000)
2018/09/09-08:03 red (ff0000)
2018/09/09-10:03 red (ff0000)
2018/09/09-14:03 red (ff0000)
2018/09/09-16:03 red (ff0000)
2018/09/10-06:03 red (ff0000)
2018/09/10-08:03 red (ff0000)
2018/09/10-10:03 red (ff0000)
2018/09/10-14:03 red (ff0000)
2018/09/10-16:03 red (ff0000)
2018/09/11-06:03 red (ff0000)
2018/09/11-08:03 red (ff0000)
2018/09/11-10:03 red (ff0000)
2018/09/11-14:03 red (ff0000)
2018/09/11-16:03 red (ff0000)
2018/09/12-06:03 red (ff0000)
2018/09/12-08:03 red (ff0000)
2018/09/12-10:03 red (ff0000)
2018/09/12-14:03 red (ff0000)
2018/09/12-16:03 red (ff0000)
2018/09/13-06:03 red (ff0000)
2018/09/13-08:03 red (ff0000)
2018/09/13-10:03 red (ff0000)
2018/09/13-14:03 yellow (ffff00)
2018/09/13-16:03 yellow (ffff00)
2018/09/14-06:03 yellow (ffff00)
2018/09/14-08:03 yellow (ffff00)
2018/09/14-10:03 yellow (ffff00)
2018/09/14-14:03 yellow (ffff00)
2018/09/14-16:03 yellow (ffff00)
2018/09/15-06:03 yellow (ffff00)
2018/09/15-08:03 yellow (ffff00)
2018/09/15-10:03 yellow (ffff00)
2018/09/15-14:03 yellow (ffff00)
2018/09/15-16:03 yellow (ffff00)
2018/09/16-06:03 yellow (ffff00)
2018/09/16-08:03 yellow (ffff00)
2018/09/16-10:03 yellow (ffff00)
2018/09/16-14:03 yellow (ffff00)
2018/09/16-16:03 yellow (ffff00)
2018/09/17-06:03 yellow (ffff00)
2018/09/17-08:03 yellow (ffff00)
2018/09/17-10:03 yellow (ffff00)
2018/09/17-14:03 yellow (ffff00)
2018/09/17-16:03 yellow (ffff00)
2018/09/18-06:03 yellow (ffff00)
2018/09/18-08:03 yellow (ffff00)
2018/09/18-10:03 yellow (ffff00)
2018/09/18-14:03 yellow (ffff00)
2018/09/18-16:03 yellow (ffff00)
2018/09/19-06:03 yellow (ffff00)
2018/09/19-08:03 yellow (ffff00)
2018/09/19-10:03 blue (0000ff)
2018/09/19-14:03 blue (0000ff)
2018/09/19-16:03 blue (0000ff)
2018/09/20-06:03 blue (0000ff)
2018/09/20-08:03 blue (0000ff)
2018/09/20-10:03 blue (0000ff)
2018/09/20-14:03 blue (0000ff)
2018/09/20-16:03 blue (0000ff)
2018/09/21-06:03 blue (0000ff)
2018/09/21-08:03 blue (0000ff)
2018/09/21-10:03 blue (0000ff)
2018/09/21-14:03 blue (0000ff)
2018/09/21-16:03 blue (0000ff)
2018/09/22-06:03 blue (0000ff)
2018/09/22-08:03 blue (0000ff)
2018/09/22-10:03 blue (0000ff)
2018/09/22-14:03 blue (0000ff)
2018/09/22-16:03 blue (0000ff)
2018/09/23-06:03 blue (0000ff)
2018/09/23-08:03 blue (0000ff)
2018/09/23-10:03 yellow (ffff00)
2018/09/23-14:03 yellow (ffff00)
2018/09/23-16:03 red (ff0000)
2018/09/24-06:03 red (ff0000)
2018/09/24-08:03 red (ff0000)
2018/09/24-10:03 red (ff0000)
2018/09/24-14:03 red (ff0000)
2018/09/24-16:03 red (ff0000)
2018/09/25-06:03 red (ff0000)
2018/09/25-08:03 red (ff0000)
2018/09/25-10:03 red (ff0000)
2018/09/25-14:03 red (ff0000)
2018/09/25-16:03 red (ff0000)
2018/09/26-06:03 red (ff0000)
2018/09/26-08:03 red (ff0000)
2018/09/26-10:03 red (ff0000)
2018/09/26-14:03 red (ff0000)
2018/09/26-16:03 red (ff0000)
2018/09/27-06:03 red (ff0000)
2018/09/27-08:03 red (ff0000)
2018/09/27-10:03 red (ff0000)
2018/09/27-14:03 red (ff0000)
2018/09/27-16:03 red (ff0000)
2018/09/28-06:03 red (ff0000)
2018/09/28-08:03 red (ff0000)
2018/09/28-10:03 red (ff0000)
2018/09/28-14:03 red (ff0000)
2018/09/28-16:03 red (ff0000)
2018/09/29-06:03 red (ff0000)
2018/09/29-08:03 red (ff0000)
2018/09/29-10:03 red (ff0000)
2018/09/29-14:03 red (ff0000)
2018/09/29-16:03 red (ff0000)
2018/09/30-06:03 red (ff0000)
2018/09/30-08:03 red (ff0000)
2018/09/30-10:03 red (ff0000)
2018/09/30-14:03 red (ff0000)
2018/09/30-16:03 red (ff0000)
