2017/10/03-08:03 yellow
2017/10/03-11:03 yellow
2017/10/03-14:03 yellow
2017/10/03-17:03 yellow
2017/10/04-06:03 yellow
2017/10/05-06:03 red
2017/10/05-09:03 red
2017/10/05-12:03 red
2017/10/05-15:03 red
2017/10/05-18:03 red
2017/10/06-06:03 red
2017/10/06-09:03 red
2017/10/06-12:03 red
2017/10/06-15:03 red
2017/10/07-06:03 red
2017/10/07-09:03 red
2017/10/07-12:03 red
2017/10/07-15:03 red
2017/10/08-06:03 red
2017/10/08-09:03 red
2017/10/08-12:03 red
2017/10/08-15:03 red
2017/10/09-06:03 red
2017/10/09-09:03 red
2017/10/09-12:03 red
2017/10/09-15:03 red
2017/10/10-06:03 red
2017/10/10-08:03 red
2017/10/10-10:03 red
2017/10/10-14:03 red
2017/10/10-16:03 red
2017/10/10-19:33 red
2017/10/11-06:03 red
2017/10/11-08:03 red
2017/10/11-10:03 red
2017/10/11-14:03 red
2017/10/11-16:03 red
2017/10/12-06:03 red
2017/10/12-08:03 red
2017/10/12-10:03 red
2017/10/12-14:03 red
2017/10/12-16:03 red
2017/10/13-06:03 red
2017/10/13-08:03 red
2017/10/13-10:03 red
2017/10/13-14:03 red
2017/10/13-16:03 red
2017/10/14-06:03 red
2017/10/14-08:03 red
2017/10/14-10:03 red
2017/10/14-14:03 red
2017/10/14-16:03 red
2017/10/15-06:03 red
2017/10/15-08:03 red
2017/10/15-10:03 red
2017/10/15-14:03 red
2017/10/15-16:03 red
2017/10/16-06:03 red
2017/10/16-08:03 red
2017/10/16-10:03 red
2017/10/16-14:03 red
2017/10/16-16:03 red
2017/10/17-06:03 red
2017/10/17-08:03 red
2017/10/17-10:03 red
2017/10/17-14:03 red
2017/10/17-16:03 red
2017/10/18-06:03 red
2017/10/18-08:03 red
2017/10/18-10:03 red
2017/10/18-14:03 red
2017/10/18-16:03 red
2017/10/19-06:03 red
2017/10/19-08:03 red
2017/10/19-10:03 red
2017/10/19-14:03 red
2017/10/19-16:03 red
2017/10/20-06:03 red
2017/10/20-08:03 red
2017/10/20-10:03 red
2017/10/20-14:03 red
2017/10/20-16:03 red
2017/10/21-06:03 red
2017/10/21-08:03 red
2017/10/21-10:03 red
2017/10/21-14:03 red
2017/10/21-16:03 red
2017/10/22-06:03 red
2017/10/22-08:03 red
2017/10/22-10:03 red
2017/10/22-14:03 red
2017/10/22-16:03 red
2017/10/23-06:03 red
2017/10/23-08:03 red
2017/10/23-10:03 red
2017/10/23-14:03 red
2017/10/23-16:03 red
2017/10/24-06:03 red
2017/10/24-08:03 red
2017/10/24-10:03 red
2017/10/24-14:03 red
2017/10/24-16:03 red
2017/10/25-06:03 red
2017/10/25-08:03 red
2017/10/25-10:03 red
2017/10/25-14:03 red
2017/10/25-16:03 red
2017/10/26-06:03 red
2017/10/26-08:03 red
2017/10/26-10:03 red
2017/10/26-14:03 red
2017/10/26-16:03 red
2017/10/27-06:03 red
2017/10/27-08:03 red
2017/10/27-10:03 red
2017/10/27-14:03 red
2017/10/27-16:03 red
2017/10/28-06:03 red
2017/10/28-08:03 red
2017/10/28-10:03 red
2017/10/28-14:03 red
2017/10/28-16:03 red
2017/10/29-06:03 red
2017/10/29-08:03 red
2017/10/29-10:03 red
2017/10/29-14:03 red
2017/10/29-16:03 red
2017/10/30-06:03 red
2017/10/30-08:03 red
2017/10/30-10:03 red
2017/10/30-14:03 red
2017/10/30-16:03 red
2017/10/31-06:03 red
2017/10/31-08:03 red
2017/10/31-10:03 red
2017/10/31-14:03 red
2017/10/31-16:03 red
